\begin{tikzpicture}
  \tkzDefPoints{
    2/0/A,
    4/2/B,
    2/4/C,
    0/2/D,
    2.9/3.5588/E,
    2.9/0.4412/F,
    2/2/Z}

  % Arc
  \draw [black, dashed] (F) arc [radius=1.8, start angle=-60, end angle=60];

  % Axis
  \draw [->] (A) -- (C);
  \node [above] at (C) {$Q_C$};
  \draw [->] (D) -- (B);
  \node [right] at (B) {$P_C$};
  \draw [black, ultra thick, fill=black] (Z) circle [radius=0.07];

  % Phasors
  \draw [->, line width=2] (Z) -- (E);
  \node [above right] at (E) {$\ang{60}$};
  \node [above left] at (E) {$S_1$};
  \draw [->, line width=2] (Z) -- (F);
  \node [below right] at (F) {$\ang{-60}$};
  \node [below left] at (F) {$S_2$};
  
\end{tikzpicture}